<svg id="Groupe_661" data-name="Groupe 661" xmlns="http://www.w3.org/2000/svg" xmlns:xlink="http://www.w3.org/1999/xlink" width="189.669" height="48.362" viewBox="0 0 189.669 48.362">
  <defs>
    <linearGradient id="linear-gradient" x1="0.592" y1="-0.044" x2="0.437" y2="1.138" gradientUnits="objectBoundingBox">
      <stop offset="0" stop-color="#525252"/>
      <stop offset="1" stop-color="#fff" stop-opacity="0"/>
    </linearGradient>
  </defs>
  <path id="Tracé_17" data-name="Tracé 17" d="M159.542,296.5l4.143-25.491H137.77L133.628,296.5Z" transform="translate(-133.628 -248.135)" fill="#f6780d"/>
  <path id="Tracé_18" data-name="Tracé 18" d="M266.025,304.807a2.506,2.506,0,0,1-1.357-1.8,1.86,1.86,0,0,1,.032-.658l1.67-9.555a2.383,2.383,0,0,0-.02-.35q-.191-1.358-2.251-1.358a3.59,3.59,0,0,0-1.873.5,1.7,1.7,0,0,0-.937,1.2l-1.724,9.992a3.226,3.226,0,0,0-.016.968,3.723,3.723,0,0,0,1.994,2.653,8.327,8.327,0,0,0,4.364,1.065h8.837l.325-1.948h-6.122A5.621,5.621,0,0,1,266.025,304.807Zm-11.586-12.63a8.088,8.088,0,0,0-4.316-1.095h-6.887a10.323,10.323,0,0,0-5.3,1.365,4.886,4.886,0,0,0-2.674,3.323l-.524,3.014-1.214,6.977a1.8,1.8,0,0,0,.011.345q.188,1.345,2.275,1.345a3.707,3.707,0,0,0,1.866-.478,1.632,1.632,0,0,0,.931-1.208l.665-3.821H250.3l-.665,3.814a1.849,1.849,0,0,0,.011.345q.189,1.345,2.275,1.345a3.7,3.7,0,0,0,1.867-.48,1.63,1.63,0,0,0,.931-1.207l1.482-8.5h0l.234-1.373a3.168,3.168,0,0,0,.016-.961A3.856,3.856,0,0,0,254.438,292.177Zm-3.12,3.988-.2,1.093h0L250.644,300H239.616l.166-.955.514-2.869a3.805,3.805,0,0,1,2.023-2.222,6.828,6.828,0,0,1,3.569-.936h1.4a4.823,4.823,0,0,1,2.714.719,2.532,2.532,0,0,1,1.349,1.808A1.676,1.676,0,0,1,251.318,296.166Zm110.819-.9a3.419,3.419,0,0,0,2.042-.618q.863-.617.765-1.312-.185-1.312-2.237-1.313a3.507,3.507,0,0,0-2.061.618q-.882.618-.785,1.312Q360.046,295.268,362.137,295.268Zm-80.112-2.733a4.872,4.872,0,0,0-2.663,3.31l-1.73,9.95a1.824,1.824,0,0,0,.011.344q.188,1.339,2.267,1.339a3.7,3.7,0,0,0,1.859-.477,1.628,1.628,0,0,0,.927-1.2l.995-5.392H295.3l.356-1.948H284.05l.4-2.19a3.373,3.373,0,0,1,1.8-2.213,6.8,6.8,0,0,1,3.554-.931h6.854l.272-1.948H287.3A10.29,10.29,0,0,0,282.026,292.535Zm106.265-4.6a2.333,2.333,0,0,1,1.22-.32h2.351l.094-.669h-3.3a3.529,3.529,0,0,0-1.81.467,1.668,1.668,0,0,0-.913,1.135l-.19.987a.7.7,0,0,0,0,.118c.04.282.271.428.676.451l0,.009h5.041l.122-.668H387.5l.176-.752A1.159,1.159,0,0,1,388.29,287.933Zm.249,3.155a3.593,3.593,0,0,0-1.874.5,1.707,1.707,0,0,0-.937,1.2l-.765,4.656h0l-1.371,8.313a2.21,2.21,0,0,0,.02.35q.19,1.357,2.249,1.358a3.6,3.6,0,0,0,1.875-.5,1.71,1.71,0,0,0,.937-1.2l1.67-10.164.465-2.806a2.256,2.256,0,0,0-.02-.35Q390.6,291.087,388.54,291.087Zm-7.328-.051a3.808,3.808,0,0,0-1.951.5,1.7,1.7,0,0,0-.949,1.208l-1.673,9.511a3.327,3.327,0,0,1-1.813,2.308,7.09,7.09,0,0,1-3.69.955h-.57V305.5h-5.3a6.86,6.86,0,0,0,1.271-.575,3.423,3.423,0,0,0,1.882-2.344l.34-1.909a2.066,2.066,0,0,0,.015-.674,2.661,2.661,0,0,0-1.429-1.908,5.978,5.978,0,0,0-3.119-.758H358.78a7.236,7.236,0,0,0-3.76.983,3.563,3.563,0,0,0-1.907,2.358l-.34,1.909a2.486,2.486,0,0,0,1.437,2.554,4.94,4.94,0,0,0,.771.365H337.943a5.628,5.628,0,0,1-2.921-.714,2.51,2.51,0,0,1-1.357-1.8,1.857,1.857,0,0,1,.033-.658l.314-1.8h.025l.427-2.589.255-1.461H334.7l.609-3.687a2.224,2.224,0,0,0-.02-.35q-.19-1.358-2.249-1.358a3.588,3.588,0,0,0-1.874.5,1.708,1.708,0,0,0-.938,1.2l-.948,5.789-.721,4.183a3.234,3.234,0,0,0-.017.969,3.727,3.727,0,0,0,1.994,2.653,8.326,8.326,0,0,0,4.365,1.065h38.717a10.472,10.472,0,0,0,5.438-1.411,5.079,5.079,0,0,0,2.732-3.4l1.739-9.894a1.9,1.9,0,0,0-.01-.358Q383.329,291.036,381.211,291.036Zm-16.048,9.633-.438,2.594a2.314,2.314,0,0,1-1.271,1.58,4.968,4.968,0,0,1-2.559.657h-1.548a4.068,4.068,0,0,1-2.1-.506,1.789,1.789,0,0,1-.969-1.294,2.4,2.4,0,0,1-.02-.449l.44-2.594a2.409,2.409,0,0,1,1.3-1.582,4.933,4.933,0,0,1,2.538-.658h1.551a4.086,4.086,0,0,1,2.107.507,1.794,1.794,0,0,1,.971,1.294A1.542,1.542,0,0,1,365.163,300.67Zm-46.669-8.492a8.093,8.093,0,0,0-4.317-1.095h-6.886a10.323,10.323,0,0,0-5.3,1.365,4.889,4.889,0,0,0-2.674,3.323l-.523,3.014-1.214,6.977a1.956,1.956,0,0,0,.012.345q.189,1.345,2.276,1.345a3.706,3.706,0,0,0,1.866-.478,1.632,1.632,0,0,0,.931-1.208l.664-3.821h11.028l-.665,3.814a1.784,1.784,0,0,0,.011.345q.188,1.345,2.275,1.345a3.7,3.7,0,0,0,1.866-.48,1.632,1.632,0,0,0,.931-1.207l1.482-8.5h0l.235-1.373a3.24,3.24,0,0,0,.016-.961A3.86,3.86,0,0,0,318.494,292.177Zm-3.119,3.988-.2,1.093h0L314.7,300H303.671l.181-1.042.5-2.781a3.808,3.808,0,0,1,2.022-2.222,6.83,6.83,0,0,1,3.57-.936h1.4a4.825,4.825,0,0,1,2.714.719,2.528,2.528,0,0,1,1.349,1.808A1.729,1.729,0,0,1,315.375,296.166Z" transform="translate(-202.286 -259.116)" fill="#1a1818"/>
  <path id="Tracé_19" data-name="Tracé 19" d="M1.931.292h27.3l-5.46,31.183-26.329.185Z" transform="translate(31.212 -0.292)" fill="url(#linear-gradient)"/>
</svg>
