<svg xmlns="http://www.w3.org/2000/svg" width="14.725" height="8.837" viewBox="0 0 14.725 8.837">
  <path id="growth" d="M16.66,6.456A.747.747,0,0,0,15.983,6H12.3a.736.736,0,0,0,0,1.472h1.906l-4.114,4.114L7.673,9.158a.736.736,0,0,0-1.045,0L2.212,13.574a.739.739,0,1,0,1.045,1.045l3.894-3.9,2.422,2.429a.736.736,0,0,0,1.045,0l4.63-4.637v1.906a.736.736,0,1,0,1.472,0V6.736A.736.736,0,0,0,16.66,6.456Z" transform="translate(-1.994 -6)" fill="red"/>
</svg>
