<svg id="Groupe_660" data-name="Groupe 660" xmlns="http://www.w3.org/2000/svg" width="23.772" height="23.728" viewBox="0 0 23.772 23.728">
  <path id="Tracé_30" data-name="Tracé 30" d="M346.464,305.5H350a3.684,3.684,0,0,0,3.557,2.712h0a3.7,3.7,0,0,0,3.564-2.712H368.31a.963.963,0,0,0,0-1.926H357.123a3.684,3.684,0,0,0-3.557-2.712A3.7,3.7,0,0,0,350,303.573h-3.538a.963.963,0,0,0,0,1.926Zm7.095-3.145,0,.417a1.767,1.767,0,1,1-1.77,1.764,1.754,1.754,0,0,1,1.77-1.764v-.417Z" transform="translate(-345.501 -300.861)" fill="#f68f24"/>
  <path id="Tracé_31" data-name="Tracé 31" d="M368.3,359.309h-3.538a3.683,3.683,0,0,0-3.557-2.712,3.7,3.7,0,0,0-3.564,2.712H346.464a.963.963,0,1,0,0,1.926h11.187a3.684,3.684,0,0,0,3.557,2.712,3.7,3.7,0,0,0,3.564-2.712h3.539a.963.963,0,1,0-.005-1.926Zm-7.1,2.726h-.079a1.817,1.817,0,1,1,.079,0Z" transform="translate(-345.501 -348.404)" fill="#f68f24"/>
  <path id="Tracé_32" data-name="Tracé 32" d="M368.3,415H357.118a3.683,3.683,0,0,0-3.557-2.712A3.7,3.7,0,0,0,350,415h-3.534a.963.963,0,0,0,0,1.926H350a3.684,3.684,0,0,0,3.557,2.712,3.7,3.7,0,0,0,3.564-2.712H368.31A.963.963,0,1,0,368.3,415Zm-16.51.961a1.767,1.767,0,1,1,1.87,1.767h-.1A1.769,1.769,0,0,1,351.795,415.958Z" transform="translate(-345.501 -395.906)" fill="#f68f24"/>
</svg>
