<svg xmlns="http://www.w3.org/2000/svg" width="20.55" height="22.422" viewBox="0 0 20.55 22.422">
  <path id="Tracé_39" data-name="Tracé 39" d="M23.641,8.268l.012-.012L19.68,4.283A.934.934,0,0,0,18.36,5.6l1.968,1.968a3.1,3.1,0,0,0-1.968,3.375,3.158,3.158,0,0,0,2.74,2.628,3.038,3.038,0,0,0,1.582-.249V22.3a1.245,1.245,0,1,1-2.491,0V16.7A2.5,2.5,0,0,0,17.7,14.209H16.455V5.491A2.5,2.5,0,0,0,13.964,3H6.491A2.5,2.5,0,0,0,4,5.491V24.173a1.249,1.249,0,0,0,1.245,1.245h9.964a1.249,1.249,0,0,0,1.245-1.245v-8.1h1.868V22.13a3.233,3.233,0,0,0,2.79,3.276,3.114,3.114,0,0,0,3.437-3.1V10.473A3.116,3.116,0,0,0,23.641,8.268Zm-9.677,3.45H6.491V6.736A1.249,1.249,0,0,1,7.736,5.491h4.982a1.249,1.249,0,0,1,1.245,1.245Zm7.473,0a1.245,1.245,0,1,1,1.245-1.245A1.249,1.249,0,0,1,21.436,11.718Z" transform="translate(-4 -3)" fill="#fff"/>
</svg>
