<svg xmlns="http://www.w3.org/2000/svg" width="17.204" height="17.204" viewBox="0 0 17.204 17.204">
  <path id="info" d="M8.6,0a8.6,8.6,0,1,0,8.6,8.6A8.6,8.6,0,0,0,8.6,0ZM7.527,7.527a1.075,1.075,0,0,1,2.151,0V12.9a1.075,1.075,0,1,1-2.151,0ZM8.6,5.393A1.076,1.076,0,1,1,9.678,4.318,1.076,1.076,0,0,1,8.6,5.393Z" fill="#fff"/>
</svg>
