<svg id="language" xmlns="http://www.w3.org/2000/svg" width="20.705" height="20.705" viewBox="0 0 20.705 20.705">
  <path id="Tracé_2659" data-name="Tracé 2659" d="M0,0H20.705V20.705H0Z" fill="none"/>
  <path id="Tracé_2660" data-name="Tracé 2660" d="M10.618,2a8.627,8.627,0,1,0,8.636,8.627A8.623,8.623,0,0,0,10.618,2ZM16.6,7.176H14.052a13.5,13.5,0,0,0-1.191-3.071A6.927,6.927,0,0,1,16.6,7.176ZM10.627,3.76a12.153,12.153,0,0,1,1.648,3.416h-3.3A12.153,12.153,0,0,1,10.627,3.76ZM3.95,12.353a6.748,6.748,0,0,1,0-3.451H6.866a14.248,14.248,0,0,0-.121,1.725,14.248,14.248,0,0,0,.121,1.725Zm.707,1.725H7.2a13.5,13.5,0,0,0,1.191,3.071,6.89,6.89,0,0,1-3.736-3.071ZM7.2,7.176H4.657A6.89,6.89,0,0,1,8.393,4.105,13.5,13.5,0,0,0,7.2,7.176Zm3.425,10.318a12.153,12.153,0,0,1-1.648-3.416h3.3A12.153,12.153,0,0,1,10.627,17.494Zm2.019-5.142H8.608a12.693,12.693,0,0,1-.138-1.725A12.583,12.583,0,0,1,8.608,8.9h4.037a12.583,12.583,0,0,1,.138,1.725A12.693,12.693,0,0,1,12.646,12.353Zm.216,4.8a13.5,13.5,0,0,0,1.191-3.071H16.6A6.927,6.927,0,0,1,12.862,17.149Zm1.527-4.8a14.248,14.248,0,0,0,.121-1.725A14.248,14.248,0,0,0,14.389,8.9H17.3a6.748,6.748,0,0,1,0,3.451Z" transform="translate(-0.275 -0.275)" fill="#fff"/>
</svg>
