<svg id="noun_logout_1350646" xmlns="http://www.w3.org/2000/svg" width="20.665" height="17.352" viewBox="0 0 20.665 17.352">
  <g id="Groupe_608" data-name="Groupe 608" transform="translate(0)">
    <g id="Groupe_607" data-name="Groupe 607">
      <path id="Tracé_2658" data-name="Tracé 2658" d="M9.321.279l3.163,3.229a.945.945,0,0,1-1.335,1.339l-1.083-1.09c-.247-.248-.446-.167-.446.182V14.586a.944.944,0,1,1-1.888,0V3.939c0-.347-.2-.43-.447-.182L6.2,4.847A.945.945,0,0,1,4.868,3.509L8,.284A.917.917,0,0,1,9.321.279ZM2.541,5.854A1.1,1.1,0,1,1,4.1,7.416a6.468,6.468,0,1,0,9.147,0,1.1,1.1,0,0,1,1.562-1.562,8.676,8.676,0,1,1-12.27,0Z" transform="translate(20.665 0) rotate(90)" fill="#fff" fill-rule="evenodd"/>
    </g>
  </g>
</svg>
