<svg id="Groupe_720" data-name="Groupe 720" xmlns="http://www.w3.org/2000/svg" width="18.678" height="14.943" viewBox="0 0 18.678 14.943">
  <g id="Groupe_719" data-name="Groupe 719" transform="translate(0 0)">
    <path id="Tracé_2697" data-name="Tracé 2697" d="M2.5,16.5a3.272,3.272,0,0,0,3.269,3.269H17.91A3.272,3.272,0,0,0,21.178,16.5v-7H2.5Zm5.137-.467h.934a.467.467,0,0,1,0,.934H7.637a.467.467,0,0,1,0-.934Zm-2.8,0h.934a.467.467,0,0,1,0,.934H4.835a.467.467,0,0,1,0-.934Z" transform="translate(-2.5 -4.83)" fill="#55e8c6"/>
    <path id="Tracé_2698" data-name="Tracé 2698" d="M17.91,4.5H5.769A3.272,3.272,0,0,0,2.5,7.769v.467H21.178V7.769A3.272,3.272,0,0,0,17.91,4.5Z" transform="translate(-2.5 -4.5)" fill="#55e8c6"/>
  </g>
</svg>
