<svg xmlns="http://www.w3.org/2000/svg" width="18.848" height="24.227" viewBox="0 0 18.848 24.227">
  <path id="Tracé_15" data-name="Tracé 15" d="M21.847,19.272V13.06c0-3.814-2.038-7.007-5.591-7.852V4.364A1.872,1.872,0,0,0,14.38,2.5a1.851,1.851,0,0,0-1.851,1.864v.845c-3.566.845-5.591,4.025-5.591,7.852v6.212l-1.615,1.6A1.243,1.243,0,0,0,6.193,23H22.555a1.246,1.246,0,0,0,.882-2.124ZM14.38,26.727a2.492,2.492,0,0,0,2.485-2.485H11.9A2.484,2.484,0,0,0,14.38,26.727Z" transform="translate(-4.955 -2.5)" fill="#d9e1ed"/>
</svg>
