<svg xmlns="http://www.w3.org/2000/svg" width="27.644" height="18.768" viewBox="0 0 27.644 18.768">
  <path id="Soustraction_1" data-name="Soustraction 1" d="M24.708,18.768H2.936A3.042,3.042,0,0,1,0,15.636V3.132A3.042,3.042,0,0,1,2.936,0H24.708a3.042,3.042,0,0,1,2.936,3.132v12.5A3.042,3.042,0,0,1,24.708,18.768Zm-14.236-5h0a4.706,4.706,0,0,0,2.008.451,4.759,4.759,0,0,0,0-9.519,4.7,4.7,0,0,0-2,.449,4.754,4.754,0,1,0-2,9.067,4.727,4.727,0,0,0,2-.448Zm2.008-1.057a3.252,3.252,0,1,1,3.252-3.251A3.255,3.255,0,0,1,12.481,12.713Zm-4.006,0a3.252,3.252,0,0,1,0-6.5,3.309,3.309,0,0,1,.5.042,4.73,4.73,0,0,0,0,6.42A3.2,3.2,0,0,1,8.475,12.711Z" fill="#d9e1ed"/>
</svg>
