<svg xmlns="http://www.w3.org/2000/svg" width="16.763" height="17.32" viewBox="0 0 16.763 17.32">
  <g id="noun_switch_2452267" transform="translate(0 0)">
    <path id="Tracé_956" data-name="Tracé 956" d="M27.469,61.194h0a.825.825,0,0,0-1.01.443A7.469,7.469,0,0,1,17.9,65.781a7.387,7.387,0,0,1-2.1-.883l1.357-.942A.379.379,0,0,0,17.1,63.3l-4.764-2.24a.379.379,0,0,0-.54.371l.441,5.246a.382.382,0,0,0,.6.28l1.522-1.06a.619.619,0,0,0,.076.07,9.169,9.169,0,0,0,3.075,1.411,8.975,8.975,0,0,0,1.324.239,9.142,9.142,0,0,0,9.129-5.3.825.825,0,0,0-.491-1.12Z" transform="translate(-11.269 -50.334)" fill="#2b2926"/>
    <path id="Tracé_957" data-name="Tracé 957" d="M10.821,15.2a7.424,7.424,0,0,1,10.144-3.559l-1.276,1.046a.382.382,0,0,0,.107.65l4.929,1.856a.379.379,0,0,0,.507-.412l-.856-5.2a.379.379,0,0,0-.619-.231l-1.444,1.175c-.029-.021-.054-.043-.082-.062A9.088,9.088,0,0,0,9.318,14.51a.825.825,0,0,0,.495,1.124h0A.825.825,0,0,0,10.821,15.2Z" transform="translate(-9.244 -9.187)" fill="#2b2926"/>
  </g>
</svg>
