<svg xmlns="http://www.w3.org/2000/svg" width="17.12" height="15.408" viewBox="0 0 17.12 15.408">
  <path id="wallet" d="M12.425,0c2.952,0,4.695,1.7,4.695,4.607H13.5v.03A3.006,3.006,0,0,0,10.455,7.6,3.006,3.006,0,0,0,13.5,10.571H17.12v.267c0,2.871-1.742,4.57-4.695,4.57H4.695c-2.952,0-4.695-1.7-4.695-4.57H0V4.57C0,1.7,1.742,0,4.695,0h7.731Zm4.056,5.883a.631.631,0,0,1,.639.623h0V8.672a.639.639,0,0,1-.639.623H13.567A1.8,1.8,0,0,1,11.779,7.93a1.7,1.7,0,0,1,.371-1.414A1.79,1.79,0,0,1,13.5,5.883h2.983Zm-2.572,1h-.282a.656.656,0,0,0-.462.182.623.623,0,0,0-.192.449.654.654,0,0,0,.654.645h.282a.638.638,0,1,0,0-1.276ZM8.887,3.331H4.056a.647.647,0,0,0-.654.631.654.654,0,0,0,.654.645H8.887a.638.638,0,1,0,0-1.276Z" fill="#807f82"/>
</svg>
